F0004CH1.CSV

a,b,c,x,y,d
Record Length,2.500000e+03,,  -0.000001330000,  -2.88000,
Sample Interval,1.000000e-09,,  -0.000001329000,  -2.88000,
Trigger Point,1.330000000000e+03,,  -0.000001328000,  -2.92000,
,,,  -0.000001327000,  -2.92000,
,,,  -0.000001326000,  -2.92000,
,,,  -0.000001325000,  -2.96000,
Source,CH1,,  -0.000001324000,  -2.96000,
Vertical Units,V,,  -0.000001323000,  -2.96000,
Vertical Scale,1.000000e+00,,  -0.000001322000,  -2.96000,
Vertical Offset,8.000000e-02,,  -0.000001321000,  -3.00000,
Horizontal Units,s,,  -0.000001320000,  -3.00000,
Horizontal Scale,2.500000e-07,,  -0.000001319000,  -3.00000,
Pt Fmt,Y,,  -0.000001318000,  -3.04000,
Yzero,0.000000e+00,,  -0.000001317000,  -3.04000,
Probe Atten,1.000000e+01,,  -0.000001316000,  -3.04000,
Model Number,TDS2024B,,  -0.000001315000,  -3.04000,
Serial Number,C030801,,  -0.000001314000,  -3.04000,
Firmware Version,FV:v22.01,,  -0.000001313000,  -3.08000,
,,,-00.000001312000,  -3.08000,
,,,-00.000001311000,  -3.08000,
,,,-00.000001310000,  -3.12000,
,,,-00.000001309000,  -3.12000,
,,,-00.000001308000,  -3.12000,
,,,-00.000001307000,  -3.12000,
,,,-00.000001306000,  -3.16000,
,,,-00.000001305000,  -3.16000,
,,,-00.000001304000,  -3.16000,
,,,-00.000001303000,  -3.16000,
,,,-00.000001302000,  -3.16000,
,,,-00.000001301000,  -3.20000,
,,,-00.000001300000,  -3.20000,
,,,-00.000001299000,  -3.20000,
,,,-00.000001298000,  -3.20000,
,,,-00.000001297000,  -3.24000,
,,,-00.000001296000,  -3.24000,
,,,-00.000001295000,  -3.24000,
,,,-00.000001294000,  -3.24000,
,,,-00.000001293000,  -3.28000,
,,,-00.000001292000,  -3.28000,
,,,-00.000001291000,  -3.28000,
,,,-00.000001290000,  -3.28000,
,,,-00.000001289000,  -3.28000,
,,,-00.000001288000,  -3.28000,
,,,-00.000001287000,  -3.32000,
,,,-00.000001286000,  -3.32000,
,,,-00.000001285000,  -3.32000,
,,,-00.000001284000,  -3.32000,
,,,-00.000001283000,  -3.32000,
,,,-00.000001282000,  -3.32000,
,,,-00.000001281000,  -3.36000,
,,,-00.000001280000,  -3.36000,
,,,-00.000001279000,  -3.36000,
,,,-00.000001278000,  -3.36000,
,,,-00.000001277000,  -3.36000,
,,,-00.000001276000,  -3.40000,
,,,-00.000001275000,  -3.40000,
,,,-00.000001274000,  -3.40000,
,,,-00.000001273000,  -3.40000,
,,,-00.000001272000,  -3.40000,
,,,-00.000001271000,  -3.40000,
,,,-00.000001270000,  -3.40000,
,,,-00.000001269000,  -3.40000,
,,,-00.000001268000,  -3.44000,
,,,-00.000001267000,  -3.44000,
,,,-00.000001266000,  -3.44000,
,,,-00.000001265000,  -3.44000,
,,,-00.000001264000,  -3.44000,
,,,-00.000001263000,  -3.44000,
,,,-00.000001262000,  -3.44000,
,,,-00.000001261000,  -3.44000,
,,,-00.000001260000,  -3.44000,
,,,-00.000001259000,  -3.48000,
,,,-00.000001258000,  -3.48000,
,,,-00.000001257000,  -3.48000,
,,,-00.000001256000,  -3.48000,
,,,-00.000001255000,  -3.48000,
,,,-00.000001254000,  -3.48000,
,,,-00.000001253000,  -3.48000,
,,,-00.000001252000,  -3.48000,
,,,-00.000001251000,  -3.48000,
,,,-00.000001250000,  -3.48000,
,,,-00.000001249000,  -3.48000,
,,,-00.000001248000,  -3.48000,
,,,-00.000001247000,  -3.48000,
,,,-00.000001246000,  -3.52000,
,,,-00.000001245000,  -3.52000,
,,,-00.000001244000,  -3.52000,
,,,-00.000001243000,  -3.52000,
,,,-00.000001242000,  -3.52000,
,,,-00.000001241000,  -3.52000,
,,,-00.000001240000,  -3.52000,
,,,-00.000001239000,  -3.52000,
,,,-00.000001238000,  -3.52000,
,,,-00.000001237000,  -3.52000,
,,,-00.000001236000,  -3.52000,
,,,-00.000001235000,  -3.52000,
,,,-00.000001234000,  -3.52000,
,,,-00.000001233000,  -3.52000,
,,,-00.000001232000,  -3.52000,
,,,-00.000001231000,  -3.52000,
,,,-00.000001230000,  -3.52000,
,,,-00.000001229000,  -3.52000,
,,,-00.000001228000,  -3.52000,
,,,-00.000001227000,  -3.52000,
,,,-00.000001226000,  -3.52000,
,,,-00.000001225000,  -3.52000,
,,,-00.000001224000,  -3.52000,
,,,-00.000001223000,  -3.52000,
,,,-00.000001222000,  -3.52000,
,,,-00.000001221000,  -3.52000,
,,,-00.000001220000,  -3.52000,
,,,-00.000001219000,  -3.52000,
,,,-00.000001218000,  -3.52000,
,,,-00.000001217000,  -3.52000,
,,,-00.000001216000,  -3.52000,
,,,-00.000001215000,  -3.52000,
,,,-00.000001214000,  -3.48000,
,,,-00.000001213000,  -3.48000,
,,,-00.000001212000,  -3.48000,
,,,-00.000001211000,  -3.48000,
,,,-00.000001210000,  -3.48000,
,,,-00.000001209000,  -3.48000,
,,,-00.000001208000,  -3.48000,
,,,-00.000001207000,  -3.48000,
,,,-00.000001206000,  -3.48000,
,,,-00.000001205000,  -3.48000,
,,,-00.000001204000,  -3.48000,
,,,-00.000001203000,  -3.48000,
,,,-00.000001202000,  -3.48000,
,,,-00.000001201000,  -3.44000,
,,,-00.000001200000,  -3.44000,
,,,-00.000001199000,  -3.44000,
,,,-00.000001198000,  -3.44000,
,,,-00.000001197000,  -3.44000,
,,,-00.000001196000,  -3.44000,
,,,-00.000001195000,  -3.44000,
,,,-00.000001194000,  -3.44000,
,,,-00.000001193000,  -3.44000,
,,,-00.000001192000,  -3.40000,
,,,-00.000001191000,  -3.40000,
,,,-00.000001190000,  -3.40000,
,,,-00.000001189000,  -3.40000,
,,,-00.000001188000,  -3.40000,
,,,-00.000001187000,  -3.40000,
,,,-00.000001186000,  -3.36000,
,,,-00.000001185000,  -3.36000,
,,,-00.000001184000,  -3.36000,
,,,-00.000001183000,  -3.36000,
,,,-00.000001182000,  -3.36000,
,,,-00.000001181000,  -3.36000,
,,,-00.000001180000,  -3.32000,
,,,-00.000001179000,  -3.32000,
,,,-00.000001178000,  -3.32000,
,,,-00.000001177000,  -3.32000,
,,,-00.000001176000,  -3.32000,
,,,-00.000001175000,  -3.28000,
,,,-00.000001174000,  -3.28000,
,,,-00.000001173000,  -3.28000,
,,,-00.000001172000,  -3.28000,
,,,-00.000001171000,  -3.28000,
,,,-00.000001170000,  -3.28000,
,,,-00.000001169000,  -3.24000,
,,,-00.000001168000,  -3.24000,
,,,-00.000001167000,  -3.24000,
,,,-00.000001166000,  -3.24000,
,,,-00.000001165000,  -3.20000,
,,,-00.000001164000,  -3.20000,
,,,-00.000001163000,  -3.20000,
,,,-00.000001162000,  -3.20000,
,,,-00.000001161000,  -3.20000,
,,,-00.000001160000,  -3.16000,
,,,-00.000001159000,  -3.16000,
,,,-00.000001158000,  -3.16000,
,,,-00.000001157000,  -3.12000,
,,,-00.000001156000,  -3.12000,
,,,-00.000001155000,  -3.12000,
,,,-00.000001154000,  -3.12000,
,,,-00.000001153000,  -3.08000,
,,,-00.000001152000,  -3.08000,
,,,-00.000001151000,  -3.08000,
,,,-00.000001150000,  -3.04000,
,,,-00.000001149000,  -3.04000,
,,,-00.000001148000,  -3.04000,
,,,-00.000001147000,  -3.04000,
,,,-00.000001146000,  -3.00000,
,,,-00.000001145000,  -3.00000,
,,,-00.000001144000,  -3.00000,
,,,-00.000001143000,  -3.00000,
,,,-00.000001142000,  -2.96000,
,,,-00.000001141000,  -2.96000,
,,,-00.000001140000,  -2.92000,
,,,-00.000001139000,  -2.92000,
,,,-00.000001138000,  -2.92000,
,,,-00.000001137000,  -2.92000,
,,,-00.000001136000,  -2.88000,
,,,-00.000001135000,  -2.88000,
,,,-00.000001134000,  -2.88000,
,,,-00.000001133000,  -2.84000,
,,,-00.000001132000,  -2.84000,
,,,-00.000001131000,  -2.84000,
,,,-00.000001130000,  -2.80000,
,,,-00.000001129000,  -2.80000,
,,,-00.000001128000,  -2.80000,
,,,-00.000001127000,  -2.76000,
,,,-00.000001126000,  -2.76000,
,,,-00.000001125000,  -2.72000,
,,,-00.000001124000,  -2.72000,
,,,-00.000001123000,  -2.72000,
,,,-00.000001122000,  -2.72000,
,,,-00.000001121000,  -2.68000,
,,,-00.000001120000,  -2.68000,
,,,-00.000001119000,  -2.64000,
,,,-00.000001118000,  -2.64000,
,,,-00.000001117000,  -2.64000,
,,,-00.000001116000,  -2.60000,
,,,-00.000001115000,  -2.60000,
,,,-00.000001114000,  -2.56000,
,,,-00.000001113000,  -2.56000,
,,,-00.000001112000,  -2.56000,
,,,-00.000001111000,  -2.52000,
,,,-00.000001110000,  -2.52000,
,,,-00.000001109000,  -2.48000,
,,,-00.000001108000,  -2.48000,
,,,-00.000001107000,  -2.48000,
,,,-00.000001106000,  -2.44000,
,,,-00.000001105000,  -2.44000,
,,,-00.000001104000,  -2.40000,
,,,-00.000001103000,  -2.40000,
,,,-00.000001102000,  -2.40000,
,,,-00.000001101000,  -2.36000,
,,,-00.000001100000,  -2.36000,
,,,-00.000001099000,  -2.32000,
,,,-00.000001098000,  -2.32000,
,,,-00.000001097000,  -2.28000,
,,,-00.000001096000,  -2.28000,
,,,-00.000001095000,  -2.24000,
,,,-00.000001094000,  -2.24000,
,,,-00.000001093000,  -2.24000,
,,,-00.000001092000,  -2.20000,
,,,-00.000001091000,  -2.20000,
,,,-00.000001090000,  -2.16000,
,,,-00.000001089000,  -2.16000,
,,,-00.000001088000,  -2.12000,
,,,-00.000001087000,  -2.12000,
,,,-00.000001086000,  -2.08000,
,,,-00.000001085000,  -2.08000,
,,,-00.000001084000,  -2.04000,
,,,-00.000001083000,  -2.04000,
,,,-00.000001082000,  -2.00000,
,,,-00.000001081000,  -2.00000,
,,,-00.000001080000,  -1.96000,
,,,-00.000001079000,  -1.96000,
,,,-00.000001078000,  -1.96000,
,,,-00.000001077000,  -1.92000,
,,,-00.000001076000,  -1.92000,
,,,-00.000001075000,  -1.88000,
,,,-00.000001074000,  -1.84000,
,,,-00.000001073000,  -1.84000,
,,,-00.000001072000,  -1.84000,
,,,-00.000001071000,  -1.80000,
,,,-00.000001070000,  -1.80000,
,,,-00.000001069000,  -1.76000,
,,,-00.000001068000,  -1.72000,
,,,-00.000001067000,  -1.72000,
,,,-00.000001066000,  -1.68000,
,,,-00.000001065000,  -1.68000,
,,,-00.000001064000,  -1.68000,
,,,-00.000001063000,  -1.64000,
,,,-00.000001062000,  -1.60000,
,,,-00.000001061000,  -1.60000,
,,,-00.000001060000,  -1.56000,
,,,-00.000001059000,  -1.56000,
,,,-00.000001058000,  -1.52000,
,,,-00.000001057000,  -1.52000,
,,,-00.000001056000,  -1.48000,
,,,-00.000001055000,  -1.48000,
,,,-00.000001054000,  -1.44000,
,,,-00.000001053000,  -1.44000,
,,,-00.000001052000,  -1.40000,
,,,-00.000001051000,  -1.40000,
,,,-00.000001050000,  -1.36000,
,,,-00.000001049000,  -1.32000,
,,,-00.000001048000,  -1.32000,
,,,-00.000001047000,  -1.28000,
,,,-00.000001046000,  -1.28000,
,,,-00.000001045000,  -1.24000,
,,,-00.000001044000,  -1.24000,
,,,-00.000001043000,  -1.20000,
,,,-00.000001042000,  -1.20000,
,,,-00.000001041000,  -1.16000,
,,,-00.000001040000,  -1.16000,
,,,-00.000001039000,  -1.12000,
,,,-00.000001038000,  -1.08000,
,,,-00.000001037000,  -1.08000,
,,,-00.000001036000,  -1.04000,
,,,-00.000001035000,  -1.04000,
,,,-00.000001034000,  -1.00000,
,,,-00.000001033000,  -1.00000,
,,,-00.000001032000,  -0.96000,
,,,-00.000001031000,  -0.92000,
,,,-00.000001030000,  -0.92000,
,,,-00.000001029000,  -0.88000,
,,,-00.000001028000,  -0.88000,
,,,-00.000001027000,  -0.84000,
,,,-00.000001026000,  -0.80000,
,,,-00.000001025000,  -0.80000,
,,,-00.000001024000,  -0.76000,
,,,-00.000001023000,  -0.76000,
,,,-00.000001022000,  -0.72000,
,,,-00.000001021000,  -0.72000,
,,,-00.000001020000,  -0.68000,
,,,-00.000001019000,  -0.64000,
,,,-00.000001018000,  -0.64000,
,,,-00.000001017000,  -0.60000,
,,,-00.000001016000,  -0.60000,
,,,-00.000001015000,  -0.56000,
,,,-00.000001014000,  -0.52000,
,,,-00.000001013000,  -0.52000,
,,,-00.000001012000,  -0.48000,
,,,-00.000001011000,  -0.48000,
,,,-00.000001010000,  -0.44000,
,,,-00.000001009000,  -0.40000,
,,,-00.000001008000,  -0.40000,
,,,-00.000001007000,  -0.36000,
,,,-00.000001006000,  -0.36000,
,,,-00.000001005000,  -0.32000,
,,,-00.000001004000,  -0.28000,
,,,-00.000001003000,  -0.28000,
,,,-00.000001002000,  -0.24000,
,,,-00.000001001000,  -0.24000,
,,,-00.000001000000,  -0.20000,
,,,-00.000000999000,  -0.16000,
,,,-00.000000998000,  -0.16000,
,,,-00.000000997000,  -0.12000,
,,,-00.000000996000,  -0.12000,
,,,-00.000000995000,  -0.08000,
,,,-00.000000994000,  -0.04000,
,,,-00.000000993000,  -0.04000,
,,,-00.000000992000,   0.00000,
,,,-00.000000991000,   0.00000,
,,,-00.000000990000,   0.04000,
,,,-00.000000989000,   0.04000,
,,,-00.000000988000,   0.08000,
,,,-00.000000987000,   0.12000,
,,,-00.000000986000,   0.12000,
,,,-00.000000985000,   0.16000,
,,,-00.000000984000,   0.16000,
,,,-00.000000983000,   0.20000,
,,,-00.000000982000,   0.24000,
,,,-00.000000981000,   0.24000,
,,,-00.000000980000,   0.28000,
,,,-00.000000979000,   0.28000,
,,,-00.000000978000,   0.32000,
,,,-00.000000977000,   0.36000,
,,,-00.000000976000,   0.36000,
,,,-00.000000975000,   0.40000,
,,,-00.000000974000,   0.40000,
,,,-00.000000973000,   0.44000,
,,,-00.000000972000,   0.48000,
,,,-00.000000971000,   0.48000,
,,,-00.000000970000,   0.52000,
,,,-00.000000969000,   0.52000,
,,,-00.000000968000,   0.56000,
,,,-00.000000967000,   0.60000,
,,,-00.000000966000,   0.60000,
,,,-00.000000965000,   0.64000,
,,,-00.000000964000,   0.64000,
,,,-00.000000963000,   0.68000,
,,,-00.000000962000,   0.72000,
,,,-00.000000961000,   0.72000,
,,,-00.000000960000,   0.76000,
,,,-00.000000959000,   0.76000,
,,,-00.000000958000,   0.80000,
,,,-00.000000957000,   0.80000,
,,,-00.000000956000,   0.84000,
,,,-00.000000955000,   0.88000,
,,,-00.000000954000,   0.88000,
,,,-00.000000953000,   0.92000,
,,,-00.000000952000,   0.92000,
,,,-00.000000951000,   0.96000,
,,,-00.000000950000,   0.96000,
,,,-00.000000949000,   1.00000,
,,,-00.000000948000,   1.04000,
,,,-00.000000947000,   1.04000,
,,,-00.000000946000,   1.08000,
,,,-00.000000945000,   1.08000,
,,,-00.000000944000,   1.12000,
,,,-00.000000943000,   1.12000,
,,,-00.000000942000,   1.16000,
,,,-00.000000941000,   1.20000,
,,,-00.000000940000,   1.20000,
,,,-00.000000939000,   1.24000,
,,,-00.000000938000,   1.24000,
,,,-00.000000937000,   1.28000,
,,,-00.000000936000,   1.28000,
,,,-00.000000935000,   1.32000,
,,,-00.000000934000,   1.36000,
,,,-00.000000933000,   1.36000,
,,,-00.000000932000,   1.40000,
,,,-00.000000931000,   1.40000,
,,,-00.000000930000,   1.44000,
,,,-00.000000929000,   1.44000,
,,,-00.000000928000,   1.48000,
,,,-00.000000927000,   1.48000,
,,,-00.000000926000,   1.52000,
,,,-00.000000925000,   1.56000,
,,,-00.000000924000,   1.56000,
,,,-00.000000923000,   1.60000,
,,,-00.000000922000,   1.60000,
,,,-00.000000921000,   1.64000,
,,,-00.000000920000,   1.64000,
,,,-00.000000919000,   1.68000,
,,,-00.000000918000,   1.72000,
,,,-00.000000917000,   1.72000,
,,,-00.000000916000,   1.76000,
,,,-00.000000915000,   1.76000,
,,,-00.000000914000,   1.80000,
,,,-00.000000913000,   1.80000,
,,,-00.000000912000,   1.84000,
,,,-00.000000911000,   1.88000,
,,,-00.000000910000,   1.92000,
,,,-00.000000909000,   1.92000,
,,,-00.000000908000,   1.96000,
,,,-00.000000907000,   2.00000,
,,,-00.000000906000,   2.00000,
,,,-00.000000905000,   2.04000,
,,,-00.000000904000,   2.08000,
,,,-00.000000903000,   2.12000,
,,,-00.000000902000,   2.12000,
,,,-00.000000901000,   2.16000,
,,,-00.000000900000,   2.20000,
,,,-00.000000899000,   2.24000,
,,,-00.000000898000,   2.24000,
,,,-00.000000897000,   2.28000,
,,,-00.000000896000,   2.32000,
,,,-00.000000895000,   2.36000,
,,,-00.000000894000,   2.36000,
,,,-00.000000893000,   2.40000,
,,,-00.000000892000,   2.40000,
,,,-00.000000891000,   2.44000,
,,,-00.000000890000,   2.48000,
,,,-00.000000889000,   2.48000,
,,,-00.000000888000,   2.52000,
,,,-00.000000887000,   2.52000,
,,,-00.000000886000,   2.56000,
,,,-00.000000885000,   2.56000,
,,,-00.000000884000,   2.60000,
,,,-00.000000883000,   2.60000,
,,,-00.000000882000,   2.64000,
,,,-00.000000881000,   2.64000,
,,,-00.000000880000,   2.64000,
,,,-00.000000879000,   2.68000,
,,,-00.000000878000,   2.68000,
,,,-00.000000877000,   2.68000,
,,,-00.000000876000,   2.72000,
,,,-00.000000875000,   2.72000,
,,,-00.000000874000,   2.76000,
,,,-00.000000873000,   2.76000,
,,,-00.000000872000,   2.76000,
,,,-00.000000871000,   2.80000,
,,,-00.000000870000,   2.80000,
,,,-00.000000869000,   2.80000,
,,,-00.000000868000,   2.84000,
,,,-00.000000867000,   2.84000,
,,,-00.000000866000,   2.84000,
,,,-00.000000865000,   2.84000,
,,,-00.000000864000,   2.88000,
,,,-00.000000863000,   2.88000,
,,,-00.000000862000,   2.88000,
,,,-00.000000861000,   2.92000,
,,,-00.000000860000,   2.92000,
,,,-00.000000859000,   2.96000,
,,,-00.000000858000,   2.96000,
,,,-00.000000857000,   2.96000,
,,,-00.000000856000,   3.00000,
,,,-00.000000855000,   3.00000,
,,,-00.000000854000,   3.00000,
,,,-00.000000853000,   3.04000,
,,,-00.000000852000,   3.04000,
,,,-00.000000851000,   3.04000,
,,,-00.000000850000,   3.04000,
,,,-00.000000849000,   3.08000,
,,,-00.000000848000,   3.08000,
,,,-00.000000847000,   3.08000,
,,,-00.000000846000,   3.12000,
,,,-00.000000845000,   3.12000,
,,,-00.000000844000,   3.12000,
,,,-00.000000843000,   3.16000,
,,,-00.000000842000,   3.16000,
,,,-00.000000841000,   3.16000,
,,,-00.000000840000,   3.20000,
,,,-00.000000839000,   3.20000,
,,,-00.000000838000,   3.20000,
,,,-00.000000837000,   3.20000,
,,,-00.000000836000,   3.24000,
,,,-00.000000835000,   3.24000,
,,,-00.000000834000,   3.24000,
,,,-00.000000833000,   3.24000,
,,,-00.000000832000,   3.28000,
,,,-00.000000831000,   3.28000,
,,,-00.000000830000,   3.28000,
,,,-00.000000829000,   3.32000,
,,,-00.000000828000,   3.32000,
,,,-00.000000827000,   3.32000,
,,,-00.000000826000,   3.32000,
,,,-00.000000825000,   3.32000,
,,,-00.000000824000,   3.36000,
,,,-00.000000823000,   3.36000,
,,,-00.000000822000,   3.36000,
,,,-00.000000821000,   3.36000,
,,,-00.000000820000,   3.40000,
,,,-00.000000819000,   3.40000,
,,,-00.000000818000,   3.40000,
,,,-00.000000817000,   3.40000,
,,,-00.000000816000,   3.40000,
,,,-00.000000815000,   3.44000,
,,,-00.000000814000,   3.44000,
,,,-00.000000813000,   3.44000,
,,,-00.000000812000,   3.44000,
,,,-00.000000811000,   3.44000,
,,,-00.000000810000,   3.44000,
,,,-00.000000809000,   3.48000,
,,,-00.000000808000,   3.48000,
,,,-00.000000807000,   3.48000,
,,,-00.000000806000,   3.48000,
,,,-00.000000805000,   3.48000,
,,,-00.000000804000,   3.48000,
,,,-00.000000803000,   3.52000,
,,,-00.000000802000,   3.52000,
,,,-00.000000801000,   3.52000,
,,,-00.000000800000,   3.52000,
,,,-00.000000799000,   3.52000,
,,,-00.000000798000,   3.52000,
,,,-00.000000797000,   3.52000,
,,,-00.000000796000,   3.56000,
,,,-00.000000795000,   3.56000,
,,,-00.000000794000,   3.56000,
,,,-00.000000793000,   3.56000,
,,,-00.000000792000,   3.56000,
,,,-00.000000791000,   3.56000,
,,,-00.000000790000,   3.56000,
,,,-00.000000789000,   3.56000,
,,,-00.000000788000,   3.60000,
,,,-00.000000787000,   3.60000,
,,,-00.000000786000,   3.60000,
,,,-00.000000785000,   3.60000,
,,,-00.000000784000,   3.60000,
,,,-00.000000783000,   3.60000,
,,,-00.000000782000,   3.60000,
,,,-00.000000781000,   3.60000,
,,,-00.000000780000,   3.60000,
,,,-00.000000779000,   3.60000,
,,,-00.000000778000,   3.60000,
,,,-00.000000777000,   3.60000,
,,,-00.000000776000,   3.60000,
,,,-00.000000775000,   3.64000,
,,,-00.000000774000,   3.64000,
,,,-00.000000773000,   3.60000,
,,,-00.000000772000,   3.60000,
,,,-00.000000771000,   3.64000,
,,,-00.000000770000,   3.64000,
,,,-00.000000769000,   3.64000,
,,,-00.000000768000,   3.64000,
,,,-00.000000767000,   3.64000,
,,,-00.000000766000,   3.64000,
,,,-00.000000765000,   3.64000,
,,,-00.000000764000,   3.64000,
,,,-00.000000763000,   3.64000,
,,,-00.000000762000,   3.64000,
,,,-00.000000761000,   3.64000,
,,,-00.000000760000,   3.64000,
,,,-00.000000759000,   3.64000,
,,,-00.000000758000,   3.64000,
,,,-00.000000757000,   3.64000,
,,,-00.000000756000,   3.64000,
,,,-00.000000755000,   3.64000,
,,,-00.000000754000,   3.64000,
,,,-00.000000753000,   3.60000,
,,,-00.000000752000,   3.64000,
,,,-00.000000751000,   3.60000,
,,,-00.000000750000,   3.60000,
,,,-00.000000749000,   3.60000,
,,,-00.000000748000,   3.60000,
,,,-00.000000747000,   3.60000,
,,,-00.000000746000,   3.60000,
,,,-00.000000745000,   3.60000,
,,,-00.000000744000,   3.60000,
,,,-00.000000743000,   3.60000,
,,,-00.000000742000,   3.60000,
,,,-00.000000741000,   3.60000,
,,,-00.000000740000,   3.60000,
,,,-00.000000739000,   3.60000,
,,,-00.000000738000,   3.60000,
,,,-00.000000737000,   3.56000,
,,,-00.000000736000,   3.56000,
,,,-00.000000735000,   3.56000,
,,,-00.000000734000,   3.56000,
,,,-00.000000733000,   3.56000,
,,,-00.000000732000,   3.56000,
,,,-00.000000731000,   3.56000,
,,,-00.000000730000,   3.56000,
,,,-00.000000729000,   3.56000,
,,,-00.000000728000,   3.52000,
,,,-00.000000727000,   3.52000,
,,,-00.000000726000,   3.52000,
,,,-00.000000725000,   3.52000,
,,,-00.000000724000,   3.52000,
,,,-00.000000723000,   3.52000,
,,,-00.000000722000,   3.52000,
,,,-00.000000721000,   3.48000,
,,,-00.000000720000,   3.48000,
,,,-00.000000719000,   3.48000,
,,,-00.000000718000,   3.48000,
,,,-00.000000717000,   3.44000,
