F0008CH2.CSV

a,b,c,x,y,d
Record Length,2.500000e+03,,  -0.000001262000,  -2.48000,
Sample Interval,1.000000e-09,,  -0.000001261000,  -2.40000,
Trigger Point,1.262000000000e+03,,  -0.000001260000,  -2.40000,
,,,  -0.000001259000,  -2.32000,
,,,  -0.000001258000,  -2.32000,
,,,  -0.000001257000,  -2.24000,
Source,CH2,,  -0.000001256000,  -2.16000,
Vertical Units,V,,  -0.000001255000,  -2.16000,
Vertical Scale,2.000000e+00,,  -0.000001254000,  -2.08000,
Vertical Offset,-8.000000e-02,,  -0.000001253000,  -2.08000,
Horizontal Units,s,,  -0.000001252000,  -2.00000,
Horizontal Scale,2.500000e-07,,  -0.000001251000,  -2.00000,
Pt Fmt,Y,,  -0.000001250000,  -1.92000,
Yzero,0.000000e+00,,  -0.000001249000,  -1.92000,
Probe Atten,2.000000e+01,,  -0.000001248000,  -1.84000,
Model Number,TDS2024B,,  -0.000001247000,  -1.76000,
Serial Number,C030801,,  -0.000001246000,  -1.76000,
Firmware Version,FV:v22.01,,  -0.000001245000,  -1.68000,
,,,-00.000001244000,  -1.68000,
,,,-00.000001243000,  -1.60000,
,,,-00.000001242000,  -1.60000,
,,,-00.000001241000,  -1.52000,
,,,-00.000001240000,  -1.52000,
,,,-00.000001239000,  -1.44000,
,,,-00.000001238000,  -1.36000,
,,,-00.000001237000,  -1.36000,
,,,-00.000001236000,  -1.28000,
,,,-00.000001235000,  -1.28000,
,,,-00.000001234000,  -1.20000,
,,,-00.000001233000,  -1.20000,
,,,-00.000001232000,  -1.12000,
,,,-00.000001231000,  -1.04000,
,,,-00.000001230000,  -1.04000,
,,,-00.000001229000,  -0.96000,
,,,-00.000001228000,  -0.96000,
,,,-00.000001227000,  -0.88000,
,,,-00.000001226000,  -0.88000,
,,,-00.000001225000,  -0.80000,
,,,-00.000001224000,  -0.80000,
,,,-00.000001223000,  -0.72000,
,,,-00.000001222000,  -0.64000,
,,,-00.000001221000,  -0.64000,
,,,-00.000001220000,  -0.56000,
,,,-00.000001219000,  -0.56000,
,,,-00.000001218000,  -0.48000,
,,,-00.000001217000,  -0.48000,
,,,-00.000001216000,  -0.40000,
,,,-00.000001215000,  -0.40000,
,,,-00.000001214000,  -0.32000,
,,,-00.000001213000,  -0.24000,
,,,-00.000001212000,  -0.24000,
,,,-00.000001211000,  -0.16000,
,,,-00.000001210000,  -0.16000,
,,,-00.000001209000,  -0.08000,
,,,-00.000001208000,   0.00000,
,,,-00.000001207000,   0.00000,
,,,-00.000001206000,   0.08000,
,,,-00.000001205000,   0.08000,
,,,-00.000001204000,   0.16000,
,,,-00.000001203000,   0.16000,
,,,-00.000001202000,   0.24000,
,,,-00.000001201000,   0.32000,
,,,-00.000001200000,   0.32000,
,,,-00.000001199000,   0.40000,
,,,-00.000001198000,   0.40000,
,,,-00.000001197000,   0.48000,
,,,-00.000001196000,   0.56000,
,,,-00.000001195000,   0.56000,
,,,-00.000001194000,   0.64000,
,,,-00.000001193000,   0.64000,
,,,-00.000001192000,   0.72000,
,,,-00.000001191000,   0.72000,
,,,-00.000001190000,   0.80000,
,,,-00.000001189000,   0.88000,
,,,-00.000001188000,   0.88000,
,,,-00.000001187000,   0.96000,
,,,-00.000001186000,   0.96000,
,,,-00.000001185000,   1.04000,
,,,-00.000001184000,   1.04000,
,,,-00.000001183000,   1.12000,
,,,-00.000001182000,   1.12000,
,,,-00.000001181000,   1.20000,
,,,-00.000001180000,   1.28000,
,,,-00.000001179000,   1.28000,
,,,-00.000001178000,   1.36000,
,,,-00.000001177000,   1.36000,
,,,-00.000001176000,   1.44000,
,,,-00.000001175000,   1.44000,
,,,-00.000001174000,   1.52000,
,,,-00.000001173000,   1.60000,
,,,-00.000001172000,   1.60000,
,,,-00.000001171000,   1.68000,
,,,-00.000001170000,   1.68000,
,,,-00.000001169000,   1.76000,
,,,-00.000001168000,   1.76000,
,,,-00.000001167000,   1.84000,
,,,-00.000001166000,   1.84000,
,,,-00.000001165000,   1.92000,
,,,-00.000001164000,   2.00000,
,,,-00.000001163000,   2.00000,
,,,-00.000001162000,   2.08000,
,,,-00.000001161000,   2.08000,
,,,-00.000001160000,   2.16000,
,,,-00.000001159000,   2.16000,
,,,-00.000001158000,   2.24000,
,,,-00.000001157000,   2.24000,
,,,-00.000001156000,   2.32000,
,,,-00.000001155000,   2.32000,
,,,-00.000001154000,   2.40000,
,,,-00.000001153000,   2.48000,
,,,-00.000001152000,   2.48000,
,,,-00.000001151000,   2.56000,
,,,-00.000001150000,   2.56000,
,,,-00.000001149000,   2.56000,
,,,-00.000001148000,   2.64000,
,,,-00.000001147000,   2.72000,
,,,-00.000001146000,   2.72000,
,,,-00.000001145000,   2.80000,
,,,-00.000001144000,   2.80000,
,,,-00.000001143000,   2.88000,
,,,-00.000001142000,   2.88000,
,,,-00.000001141000,   2.96000,
,,,-00.000001140000,   2.96000,
,,,-00.000001139000,   3.04000,
,,,-00.000001138000,   3.04000,
,,,-00.000001137000,   3.12000,
,,,-00.000001136000,   3.12000,
,,,-00.000001135000,   3.20000,
,,,-00.000001134000,   3.20000,
,,,-00.000001133000,   3.28000,
,,,-00.000001132000,   3.28000,
,,,-00.000001131000,   3.36000,
,,,-00.000001130000,   3.36000,
,,,-00.000001129000,   3.44000,
,,,-00.000001128000,   3.44000,
,,,-00.000001127000,   3.52000,
,,,-00.000001126000,   3.52000,
,,,-00.000001125000,   3.60000,
,,,-00.000001124000,   3.60000,
,,,-00.000001123000,   3.68000,
,,,-00.000001122000,   3.68000,
,,,-00.000001121000,   3.76000,
,,,-00.000001120000,   3.76000,
,,,-00.000001119000,   3.84000,
,,,-00.000001118000,   3.84000,
,,,-00.000001117000,   3.92000,
,,,-00.000001116000,   3.92000,
,,,-00.000001115000,   4.00000,
,,,-00.000001114000,   4.00000,
,,,-00.000001113000,   4.00000,
,,,-00.000001112000,   4.08000,
,,,-00.000001111000,   4.08000,
,,,-00.000001110000,   4.16000,
,,,-00.000001109000,   4.16000,
,,,-00.000001108000,   4.24000,
,,,-00.000001107000,   4.24000,
,,,-00.000001106000,   4.32000,
,,,-00.000001105000,   4.32000,
,,,-00.000001104000,   4.32000,
,,,-00.000001103000,   4.40000,
,,,-00.000001102000,   4.40000,
,,,-00.000001101000,   4.48000,
,,,-00.000001100000,   4.48000,
,,,-00.000001099000,   4.56000,
,,,-00.000001098000,   4.56000,
,,,-00.000001097000,   4.56000,
,,,-00.000001096000,   4.64000,
,,,-00.000001095000,   4.64000,
,,,-00.000001094000,   4.72000,
,,,-00.000001093000,   4.72000,
,,,-00.000001092000,   4.72000,
,,,-00.000001091000,   4.80000,
,,,-00.000001090000,   4.80000,
,,,-00.000001089000,   4.88000,
,,,-00.000001088000,   4.88000,
,,,-00.000001087000,   4.88000,
,,,-00.000001086000,   4.96000,
,,,-00.000001085000,   4.96000,
,,,-00.000001084000,   5.04000,
,,,-00.000001083000,   5.04000,
,,,-00.000001082000,   5.04000,
,,,-00.000001081000,   5.12000,
,,,-00.000001080000,   5.12000,
,,,-00.000001079000,   5.20000,
,,,-00.000001078000,   5.20000,
,,,-00.000001077000,   5.20000,
,,,-00.000001076000,   5.28000,
,,,-00.000001075000,   5.28000,
,,,-00.000001074000,   5.28000,
,,,-00.000001073000,   5.36000,
,,,-00.000001072000,   5.36000,
,,,-00.000001071000,   5.36000,
,,,-00.000001070000,   5.44000,
,,,-00.000001069000,   5.44000,
,,,-00.000001068000,   5.44000,
,,,-00.000001067000,   5.52000,
,,,-00.000001066000,   5.52000,
,,,-00.000001065000,   5.52000,
,,,-00.000001064000,   5.60000,
,,,-00.000001063000,   5.60000,
,,,-00.000001062000,   5.60000,
,,,-00.000001061000,   5.68000,
,,,-00.000001060000,   5.68000,
,,,-00.000001059000,   5.68000,
,,,-00.000001058000,   5.68000,
,,,-00.000001057000,   5.76000,
,,,-00.000001056000,   5.76000,
,,,-00.000001055000,   5.76000,
,,,-00.000001054000,   5.84000,
,,,-00.000001053000,   5.84000,
,,,-00.000001052000,   5.84000,
,,,-00.000001051000,   5.92000,
,,,-00.000001050000,   5.92000,
,,,-00.000001049000,   5.92000,
,,,-00.000001048000,   5.92000,
,,,-00.000001047000,   6.00000,
,,,-00.000001046000,   6.00000,
,,,-00.000001045000,   6.00000,
,,,-00.000001044000,   6.00000,
,,,-00.000001043000,   6.08000,
,,,-00.000001042000,   6.08000,
,,,-00.000001041000,   6.08000,
,,,-00.000001040000,   6.08000,
,,,-00.000001039000,   6.16000,
,,,-00.000001038000,   6.16000,
,,,-00.000001037000,   6.16000,
,,,-00.000001036000,   6.16000,
,,,-00.000001035000,   6.16000,
,,,-00.000001034000,   6.24000,
,,,-00.000001033000,   6.24000,
,,,-00.000001032000,   6.24000,
,,,-00.000001031000,   6.24000,
,,,-00.000001030000,   6.32000,
,,,-00.000001029000,   6.32000,
,,,-00.000001028000,   6.32000,
,,,-00.000001027000,   6.32000,
,,,-00.000001026000,   6.32000,
,,,-00.000001025000,   6.40000,
,,,-00.000001024000,   6.40000,
,,,-00.000001023000,   6.40000,
,,,-00.000001022000,   6.40000,
,,,-00.000001021000,   6.40000,
,,,-00.000001020000,   6.40000,
,,,-00.000001019000,   6.48000,
,,,-00.000001018000,   6.48000,
,,,-00.000001017000,   6.48000,
,,,-00.000001016000,   6.48000,
,,,-00.000001015000,   6.48000,
,,,-00.000001014000,   6.48000,
,,,-00.000001013000,   6.56000,
,,,-00.000001012000,   6.56000,
,,,-00.000001011000,   6.56000,
,,,-00.000001010000,   6.56000,
,,,-00.000001009000,   6.56000,
,,,-00.000001008000,   6.56000,
,,,-00.000001007000,   6.56000,
,,,-00.000001006000,   6.56000,
,,,-00.000001005000,   6.56000,
,,,-00.000001004000,   6.64000,
,,,-00.000001003000,   6.64000,
,,,-00.000001002000,   6.64000,
,,,-00.000001001000,   6.64000,
,,,-00.000001000000,   6.64000,
,,,-00.000000999000,   6.64000,
,,,-00.000000998000,   6.64000,
,,,-00.000000997000,   6.64000,
,,,-00.000000996000,   6.64000,
,,,-00.000000995000,   6.64000,
,,,-00.000000994000,   6.64000,
,,,-00.000000993000,   6.72000,
,,,-00.000000992000,   6.72000,
,,,-00.000000991000,   6.72000,
,,,-00.000000990000,   6.72000,
,,,-00.000000989000,   6.72000,
,,,-00.000000988000,   6.72000,
,,,-00.000000987000,   6.72000,
,,,-00.000000986000,   6.72000,
,,,-00.000000985000,   6.72000,
,,,-00.000000984000,   6.72000,
,,,-00.000000983000,   6.72000,
,,,-00.000000982000,   6.72000,
,,,-00.000000981000,   6.72000,
,,,-00.000000980000,   6.72000,
,,,-00.000000979000,   6.72000,
,,,-00.000000978000,   6.72000,
,,,-00.000000977000,   6.72000,
,,,-00.000000976000,   6.72000,
,,,-00.000000975000,   6.72000,
,,,-00.000000974000,   6.72000,
,,,-00.000000973000,   6.72000,
,,,-00.000000972000,   6.72000,
,,,-00.000000971000,   6.72000,
,,,-00.000000970000,   6.72000,
,,,-00.000000969000,   6.72000,
,,,-00.000000968000,   6.72000,
,,,-00.000000967000,   6.72000,
,,,-00.000000966000,   6.72000,
,,,-00.000000965000,   6.72000,
,,,-00.000000964000,   6.72000,
,,,-00.000000963000,   6.72000,
,,,-00.000000962000,   6.72000,
,,,-00.000000961000,   6.72000,
,,,-00.000000960000,   6.64000,
,,,-00.000000959000,   6.64000,
,,,-00.000000958000,   6.64000,
,,,-00.000000957000,   6.64000,
,,,-00.000000956000,   6.64000,
,,,-00.000000955000,   6.64000,
,,,-00.000000954000,   6.64000,
,,,-00.000000953000,   6.64000,
,,,-00.000000952000,   6.64000,
,,,-00.000000951000,   6.64000,
,,,-00.000000950000,   6.64000,
,,,-00.000000949000,   6.64000,
,,,-00.000000948000,   6.64000,
,,,-00.000000947000,   6.56000,
,,,-00.000000946000,   6.56000,
,,,-00.000000945000,   6.56000,
,,,-00.000000944000,   6.56000,
,,,-00.000000943000,   6.56000,
,,,-00.000000942000,   6.56000,
,,,-00.000000941000,   6.48000,
,,,-00.000000940000,   6.48000,
,,,-00.000000939000,   6.48000,
,,,-00.000000938000,   6.48000,
,,,-00.000000937000,   6.48000,
,,,-00.000000936000,   6.48000,
,,,-00.000000935000,   6.48000,
,,,-00.000000934000,   6.48000,
,,,-00.000000933000,   6.48000,
,,,-00.000000932000,   6.40000,
,,,-00.000000931000,   6.40000,
,,,-00.000000930000,   6.40000,
,,,-00.000000929000,   6.40000,
,,,-00.000000928000,   6.40000,
,,,-00.000000927000,   6.40000,
,,,-00.000000926000,   6.40000,
,,,-00.000000925000,   6.40000,
,,,-00.000000924000,   6.32000,
,,,-00.000000923000,   6.32000,
,,,-00.000000922000,   6.32000,
,,,-00.000000921000,   6.24000,
,,,-00.000000920000,   6.24000,
,,,-00.000000919000,   6.24000,
,,,-00.000000918000,   6.24000,
,,,-00.000000917000,   6.16000,
,,,-00.000000916000,   6.16000,
,,,-00.000000915000,   6.16000,
,,,-00.000000914000,   6.16000,
,,,-00.000000913000,   6.08000,
,,,-00.000000912000,   6.08000,
,,,-00.000000911000,   6.08000,
,,,-00.000000910000,   6.08000,
,,,-00.000000909000,   6.08000,
,,,-00.000000908000,   6.00000,
,,,-00.000000907000,   6.00000,
,,,-00.000000906000,   6.00000,
,,,-00.000000905000,   6.00000,
,,,-00.000000904000,   5.92000,
,,,-00.000000903000,   5.92000,
,,,-00.000000902000,   5.92000,
,,,-00.000000901000,   5.92000,
,,,-00.000000900000,   5.84000,
,,,-00.000000899000,   5.84000,
,,,-00.000000898000,   5.84000,
,,,-00.000000897000,   5.84000,
,,,-00.000000896000,   5.76000,
,,,-00.000000895000,   5.76000,
,,,-00.000000894000,   5.76000,
,,,-00.000000893000,   5.68000,
,,,-00.000000892000,   5.68000,
,,,-00.000000891000,   5.68000,
,,,-00.000000890000,   5.68000,
,,,-00.000000889000,   5.60000,
,,,-00.000000888000,   5.60000,
,,,-00.000000887000,   5.60000,
,,,-00.000000886000,   5.52000,
,,,-00.000000885000,   5.52000,
,,,-00.000000884000,   5.52000,
,,,-00.000000883000,   5.52000,
,,,-00.000000882000,   5.52000,
,,,-00.000000881000,   5.52000,
,,,-00.000000880000,   5.44000,
,,,-00.000000879000,   5.44000,
,,,-00.000000878000,   5.44000,
,,,-00.000000877000,   5.44000,
,,,-00.000000876000,   5.36000,
,,,-00.000000875000,   5.36000,
,,,-00.000000874000,   5.36000,
,,,-00.000000873000,   5.36000,
,,,-00.000000872000,   5.36000,
,,,-00.000000871000,   5.28000,
,,,-00.000000870000,   5.28000,
,,,-00.000000869000,   5.28000,
,,,-00.000000868000,   5.28000,
,,,-00.000000867000,   5.28000,
,,,-00.000000866000,   5.20000,
,,,-00.000000865000,   5.20000,
,,,-00.000000864000,   5.20000,
,,,-00.000000863000,   5.12000,
,,,-00.000000862000,   5.12000,
,,,-00.000000861000,   5.12000,
,,,-00.000000860000,   5.12000,
,,,-00.000000859000,   5.04000,
,,,-00.000000858000,   5.04000,
,,,-00.000000857000,   4.96000,
,,,-00.000000856000,   4.96000,
,,,-00.000000855000,   4.96000,
,,,-00.000000854000,   4.88000,
,,,-00.000000853000,   4.88000,
,,,-00.000000852000,   4.88000,
,,,-00.000000851000,   4.80000,
,,,-00.000000850000,   4.80000,
,,,-00.000000849000,   4.72000,
,,,-00.000000848000,   4.72000,
,,,-00.000000847000,   4.72000,
,,,-00.000000846000,   4.64000,
,,,-00.000000845000,   4.64000,
,,,-00.000000844000,   4.56000,
,,,-00.000000843000,   4.56000,
,,,-00.000000842000,   4.48000,
,,,-00.000000841000,   4.48000,
,,,-00.000000840000,   4.40000,
,,,-00.000000839000,   4.40000,
,,,-00.000000838000,   4.32000,
,,,-00.000000837000,   4.32000,
,,,-00.000000836000,   4.24000,
,,,-00.000000835000,   4.24000,
,,,-00.000000834000,   4.24000,
,,,-00.000000833000,   4.16000,
,,,-00.000000832000,   4.16000,
,,,-00.000000831000,   4.08000,
,,,-00.000000830000,   4.08000,
,,,-00.000000829000,   4.00000,
,,,-00.000000828000,   4.00000,
,,,-00.000000827000,   3.92000,
,,,-00.000000826000,   3.92000,
,,,-00.000000825000,   3.84000,
,,,-00.000000824000,   3.84000,
,,,-00.000000823000,   3.76000,
,,,-00.000000822000,   3.76000,
,,,-00.000000821000,   3.68000,
,,,-00.000000820000,   3.68000,
,,,-00.000000819000,   3.60000,
,,,-00.000000818000,   3.60000,
,,,-00.000000817000,   3.52000,
,,,-00.000000816000,   3.52000,
,,,-00.000000815000,   3.52000,
,,,-00.000000814000,   3.44000,
,,,-00.000000813000,   3.36000,
,,,-00.000000812000,   3.36000,
,,,-00.000000811000,   3.36000,
,,,-00.000000810000,   3.28000,
,,,-00.000000809000,   3.20000,
,,,-00.000000808000,   3.20000,
,,,-00.000000807000,   3.12000,
,,,-00.000000806000,   3.12000,
,,,-00.000000805000,   3.12000,
,,,-00.000000804000,   3.04000,
,,,-00.000000803000,   2.96000,
,,,-00.000000802000,   2.96000,
,,,-00.000000801000,   2.96000,
,,,-00.000000800000,   2.88000,
,,,-00.000000799000,   2.80000,
,,,-00.000000798000,   2.80000,
,,,-00.000000797000,   2.72000,
,,,-00.000000796000,   2.72000,
,,,-00.000000795000,   2.64000,
,,,-00.000000794000,   2.64000,
,,,-00.000000793000,   2.56000,
,,,-00.000000792000,   2.56000,
,,,-00.000000791000,   2.48000,
,,,-00.000000790000,   2.48000,
,,,-00.000000789000,   2.40000,
,,,-00.000000788000,   2.40000,
,,,-00.000000787000,   2.32000,
,,,-00.000000786000,   2.32000,
,,,-00.000000785000,   2.24000,
,,,-00.000000784000,   2.24000,
,,,-00.000000783000,   2.16000,
,,,-00.000000782000,   2.16000,
,,,-00.000000781000,   2.08000,
,,,-00.000000780000,   2.00000,
,,,-00.000000779000,   2.00000,
,,,-00.000000778000,   2.00000,
,,,-00.000000777000,   1.92000,
,,,-00.000000776000,   1.92000,
,,,-00.000000775000,   1.84000,
,,,-00.000000774000,   1.76000,
,,,-00.000000773000,   1.76000,
,,,-00.000000772000,   1.68000,
,,,-00.000000771000,   1.68000,
,,,-00.000000770000,   1.60000,
,,,-00.000000769000,   1.60000,
,,,-00.000000768000,   1.52000,
,,,-00.000000767000,   1.52000,
,,,-00.000000766000,   1.44000,
,,,-00.000000765000,   1.44000,
,,,-00.000000764000,   1.36000,
,,,-00.000000763000,   1.28000,
,,,-00.000000762000,   1.28000,
,,,-00.000000761000,   1.28000,
,,,-00.000000760000,   1.20000,
,,,-00.000000759000,   1.12000,
,,,-00.000000758000,   1.12000,
,,,-00.000000757000,   1.04000,
,,,-00.000000756000,   1.04000,
,,,-00.000000755000,   0.96000,
,,,-00.000000754000,   0.96000,
,,,-00.000000753000,   0.88000,
,,,-00.000000752000,   0.88000,
,,,-00.000000751000,   0.80000,
,,,-00.000000750000,   0.72000,
,,,-00.000000749000,   0.72000,
,,,-00.000000748000,   0.64000,
,,,-00.000000747000,   0.64000,
,,,-00.000000746000,   0.56000,
,,,-00.000000745000,   0.56000,
,,,-00.000000744000,   0.48000,
,,,-00.000000743000,   0.48000,
,,,-00.000000742000,   0.40000,
,,,-00.000000741000,   0.40000,
,,,-00.000000740000,   0.32000,
,,,-00.000000739000,   0.32000,
,,,-00.000000738000,   0.24000,
,,,-00.000000737000,   0.24000,
,,,-00.000000736000,   0.16000,
,,,-00.000000735000,   0.08000,
,,,-00.000000734000,   0.08000,
,,,-00.000000733000,   0.00000,
,,,-00.000000732000,   0.00000,
,,,-00.000000731000,  -0.08000,
,,,-00.000000730000,  -0.08000,
,,,-00.000000729000,  -0.16000,
,,,-00.000000728000,  -0.16000,
,,,-00.000000727000,  -0.24000,
,,,-00.000000726000,  -0.32000,
,,,-00.000000725000,  -0.32000,
,,,-00.000000724000,  -0.40000,
,,,-00.000000723000,  -0.40000,
,,,-00.000000722000,  -0.48000,
,,,-00.000000721000,  -0.48000,
,,,-00.000000720000,  -0.56000,
,,,-00.000000719000,  -0.56000,
,,,-00.000000718000,  -0.64000,
,,,-00.000000717000,  -0.64000,
,,,-00.000000716000,  -0.72000,
,,,-00.000000715000,  -0.72000,
,,,-00.000000714000,  -0.80000,
,,,-00.000000713000,  -0.80000,
,,,-00.000000712000,  -0.88000,
,,,-00.000000711000,  -0.88000,
,,,-00.000000710000,  -0.96000,
,,,-00.000000709000,  -0.96000,
,,,-00.000000708000,  -1.04000,
,,,-00.000000707000,  -1.12000,
,,,-00.000000706000,  -1.12000,
,,,-00.000000705000,  -1.20000,
,,,-00.000000704000,  -1.20000,
,,,-00.000000703000,  -1.28000,
,,,-00.000000702000,  -1.28000,
,,,-00.000000701000,  -1.36000,
,,,-00.000000700000,  -1.36000,
,,,-00.000000699000,  -1.44000,
,,,-00.000000698000,  -1.44000,
,,,-00.000000697000,  -1.52000,
,,,-00.000000696000,  -1.52000,
,,,-00.000000695000,  -1.60000,
,,,-00.000000694000,  -1.60000,
,,,-00.000000693000,  -1.68000,
,,,-00.000000692000,  -1.68000,
,,,-00.000000691000,  -1.76000,
,,,-00.000000690000,  -1.76000,
,,,-00.000000689000,  -1.84000,
,,,-00.000000688000,  -1.84000,
,,,-00.000000687000,  -1.92000,
,,,-00.000000686000,  -1.92000,
,,,-00.000000685000,  -2.00000,
,,,-00.000000684000,  -2.08000,
,,,-00.000000683000,  -2.08000,
,,,-00.000000682000,  -2.08000,
,,,-00.000000681000,  -2.16000,
,,,-00.000000680000,  -2.16000,
,,,-00.000000679000,  -2.24000,
,,,-00.000000678000,  -2.24000,
,,,-00.000000677000,  -2.32000,
,,,-00.000000676000,  -2.32000,
,,,-00.000000675000,  -2.40000,
,,,-00.000000674000,  -2.40000,
,,,-00.000000673000,  -2.48000,
,,,-00.000000672000,  -2.48000,
,,,-00.000000671000,  -2.56000,
,,,-00.000000670000,  -2.56000,
,,,-00.000000669000,  -2.64000,
,,,-00.000000668000,  -2.64000,
,,,-00.000000667000,  -2.72000,
,,,-00.000000666000,  -2.72000,
,,,-00.000000665000,  -2.80000,
,,,-00.000000664000,  -2.80000,
,,,-00.000000663000,  -2.80000,
,,,-00.000000662000,  -2.88000,
,,,-00.000000661000,  -2.88000,
,,,-00.000000660000,  -2.96000,
,,,-00.000000659000,  -2.96000,
,,,-00.000000658000,  -3.04000,
,,,-00.000000657000,  -3.04000,
,,,-00.000000656000,  -3.12000,
,,,-00.000000655000,  -3.12000,
,,,-00.000000654000,  -3.20000,
,,,-00.000000653000,  -3.20000,
,,,-00.000000652000,  -3.20000,
,,,-00.000000651000,  -3.28000,
,,,-00.000000650000,  -3.28000,
,,,-00.000000649000,  -3.36000,
